<?xml version="1.0" standalone="no"?>
<!DOCTYPE svg PUBLIC "-//W3C//DTD SVG 20010904//EN"
 "http://www.w3.org/TR/2001/REC-SVG-20010904/DTD/svg10.dtd">
<svg version="1.0" xmlns="http://www.w3.org/2000/svg"
 width="1026.000000pt" height="1026.000000pt" viewBox="0 0 1026.000000 1026.000000"
 preserveAspectRatio="xMidYMid meet">
<metadata>
Created by potrace 1.11, written by Peter Selinger 2001-2013
</metadata>
<g transform="translate(0.000000,1026.000000) scale(0.100000,-0.100000)"
fill="#000000" stroke="none">
<path d="M4978 9535 c-2 -2 -66 -6 -142 -9 -77 -4 -142 -8 -145 -10 -3 -2 -37
-7 -76 -10 -58 -5 -163 -21 -340 -52 -65 -11 -324 -76 -405 -100 -451 -137
-868 -338 -1250 -601 -53 -37 -246 -182 -270 -203 -14 -12 -47 -40 -75 -63
-126 -106 -347 -322 -456 -447 -452 -518 -777 -1128 -950 -1780 -7 -25 -14
-49 -15 -55 -2 -5 -6 -23 -9 -40 -3 -16 -12 -55 -20 -85 -14 -54 -50 -259 -59
-332 -3 -21 -8 -53 -11 -70 -33 -195 -39 -765 -10 -1003 2 -16 6 -50 9 -75 5
-46 21 -150 42 -272 11 -64 54 -264 64 -298 6 -19 13 -44 15 -55 19 -84 138
-432 187 -545 308 -708 721 -1253 1313 -1739 213 -174 521 -370 804 -509 326
-161 683 -287 1011 -356 88 -19 120 -25 160 -31 25 -3 53 -8 62 -11 9 -3 32
-7 50 -9 18 -2 67 -8 108 -14 225 -32 522 -42 810 -27 194 10 202 11 350 32
352 50 695 139 1005 261 191 75 426 187 558 265 28 17 72 42 97 56 73 41 299
193 395 267 334 255 603 524 858 855 80 105 186 262 272 404 81 135 228 421
265 516 12 30 28 69 35 85 28 59 128 343 140 395 2 8 13 49 25 90 27 97 38
143 66 275 15 72 44 238 49 280 6 55 15 126 20 165 30 212 25 716 -9 982 -71
560 -259 1144 -510 1586 -25 45 -58 104 -73 130 -14 26 -32 54 -39 63 -8 8
-14 21 -14 27 0 7 -4 12 -10 12 -5 0 -10 4 -10 9 0 4 -24 43 -52 85 -29 43
-57 85 -63 94 -25 39 -179 236 -259 331 -131 156 -392 410 -561 547 -445 361
-933 622 -1485 796 -96 30 -114 35 -315 83 -121 28 -124 29 -245 49 -112 20
-204 32 -305 41 -33 3 -89 8 -125 11 -63 6 -457 13 -462 9z"/>
</g>
</svg>
